Interpreting Data for Public Health, Research Policy, or Practice
…
in my work now:

i’ve had to implement every aspect of what we just talked about including

mutating or transforming the data

library(tidyverse)

starwars |> 
  select(name, mass, species) |> 
  group_by(species) |> 
  mutate(mass_norm = mass / mean(mass, na.rm = TRUE))

# A tibble: 87 × 4
# Groups:   species [38]
   name                mass species mass_norm
   <chr>              <dbl> <chr>       <dbl>
 1 Luke Skywalker        77 Human       0.947
 2 C-3PO                 75 Droid       1.08 
 3 R2-D2                 32 Droid       0.459
 4 Darth Vader          136 Human       1.67 
 5 Leia Organa           49 Human       0.603
 6 Owen Lars            120 Human       1.48 
 7 Beru Whitesun Lars    75 Human       0.922
 8 R5-D4                 32 Droid       0.459
 9 Biggs Darklighter     84 Human       1.03 
10 Obi-Wan Kenobi        77 Human       0.947
# ℹ 77 more rows
…
transforming the shape of the data

# turn wide data to long data for easier categorization
relig_income |> 
  pivot_longer(!religion, names_to = "income", values_to = "count")

# A tibble: 180 × 3
   religion income             count
   <chr>    <chr>              <dbl>
 1 Agnostic <$10k                 27
 2 Agnostic $10-20k               34
 3 Agnostic $20-30k               60
 4 Agnostic $30-40k               81
 5 Agnostic $40-50k               76
 6 Agnostic $50-75k              137
 7 Agnostic $75-100k             122
 8 Agnostic $100-150k            109
 9 Agnostic >150k                 84
10 Agnostic Don't know/refused    96
# ℹ 170 more rows
…
